runid       restart_files   restart_dates   pp_rdm_num_pert
run-001     mc_abc          4500_m12	    0
run-002     mc_abc          4550_m12	    2
run-003     mc_abc          4600_m12	    4
run-004     mc_abc          4650_m12	    6
run-005     mc_abc          4700_m12	    8
